Place,Name,Division,BodyweightKg,Squat1Kg,Squat2Kg,Squat3Kg,Best3SquatKg,Squat4Kg,Bench1Kg,Bench2Kg,Bench3Kg,Best3BenchKg,Deadlift1Kg,Deadlift2Kg,Deadlift3Kg,Best3DeadliftKg,TotalKg,WeightClassKg,Sex,CyrillicName,BirthYear,Tested,Equipment,Event
1,Viktoriya Aslanova,O,43.7,55,-60,-60,55,,32.5,35,37.5,37.5,95,100,102.5,102.5,195,44,F,Виктория Асланова,1989,Yes,Wraps,SBD
1,Irina Gurska,J,51.3,80,85,90,90,,40,42.5,45,45,105,-110,110,110,245,52,F,Ірина Гурська,1992,Yes,Wraps,SBD
2,Olga Yatina,J,52,70,-80,80,80,,37.5,40,42.5,42.5,70,80,90,90,212.5,52,F,Ольга Ятина,1994,Yes,Wraps,SBD
1,Nadezhda Bilanchuk,O,51.9,-55,55,-57.5,55,,47.5,-50,-50,47.5,75,80,85,85,187.5,52,F,Надежда Биланчук,1989,Yes,Wraps,SBD
1,Katerina Ovcharenko,T3,53.3,90,-100,-100,90,,45,50,-55,50,107.5,-115,-122.5,107.5,247.5,56,F,Катерина Овчаренко,1996,Yes,Wraps,SBD
2,Nadiya Poprotska,T3,55.3,75,-80,-80,75,,37.5,42.5,-45,42.5,95,100,-105,100,217.5,56,F,Надія Попроцька,1995,Yes,Wraps,SBD
1,Anastasiya Usenko,J,55.3,90,100,-105,100,,50,55,57.5,57.5,95,-110,-110,95,252.5,56,F,Анастасія Усенко,1993,Yes,Wraps,SBD
1,Svitlana Bugaeva,O,54,-80,85,95,95,,52.5,60,-65,60,115,125,130,130,285,56,F,Світлана Бугаєва,1986,Yes,Wraps,SBD
1,Yana Yonenko,T1,60,85,90,-95,90,,45,50,-55,50,-90,90,100,100,240,60,F,Яна Йоненко,1999,Yes,Wraps,SBD
1,Anastasiya Muratova,O,58,100,115,-125,115,,65,75,-82.5,75,110,-125,,110,300,60,F,Анастасія Муратова,1989,Yes,Wraps,SBD
2,Svitlana Bukarchuk,O,58.2,90,-100,-100,90,,55,-60,-60,55,120,130,140,140,285,60,F,Світлана Букарчук,1978,Yes,Wraps,SBD
3,Natalya Kravchenko,O,57.7,-80,80,-95,80,,50,55,-60,55,95,110,120,120,255,60,F,Наталья Кравченко,1977,Yes,Wraps,SBD
1,Natalya Mavdryk,O,64.1,100,105,-110,105,,70,-75,77.5,77.5,135,140,-145,140,322.5,67.5,F,Наталя Мавдрик,1984,Yes,Wraps,SBD
2,Tetyana Stepanenko,O,65.9,110,-115,-115,110,,60,65,-67.5,65,120,130,-135,130,305,67.5,F,Тетяна Степаненко,1986,Yes,Wraps,SBD
1,Yana Grechko,O,76,95,100,105,105,,-65,70,-75,70,130,140,150,150,325,82.5,F,Яна Гречко,1984,Yes,Wraps,SBD
1,Dmytro Boronnikov,T1,56,70,-75,80,80,,40,45,,45,80,85,90,90,215,56,M,Дмитро Боронніков,2002,Yes,Wraps,SBD
1,Maxym Popovych,T3,54.8,127.5,135,-140,135,,95,100,105,105,145,160,170,170,410,56,M,Максим Попович,1996,Yes,Wraps,SBD
DQ,Stepan Geyvandov,J,55.3,110,-117.5,117.5,117.5,,95,-100,-100,95,-157.5,-157.5,-157.5,,,56,M,Степан Гейвандов,1995,Yes,Wraps,SBD
1,Valeriy Rud',O,67.5,180,190,200,200,,130,140,-145,140,190,200,-210,200,540,67.5,M,Валерій Рудь,1987,Yes,Wraps,SBD
1,Sergiy Yamchuk,T3,75,185,-205,-205,185,,115,122.5,-125,122.5,222.5,232.5,-242.5,232.5,540,75,M,Сергій Ямчук,1995,Yes,Wraps,SBD
2,Maxym Kompaniets,T3,74.6,-155,160,175,175,,-115,120,-130,120,190,210,-220,210,505,75,M,Максим Компанієць,1997,Yes,Wraps,SBD
3,Oleksandr Lukachinets,T3,71.2,140,150,-160,150,,105,110,115,115,195,-205,,195,460,75,M,Олександр Лукачинець,1997,Yes,Wraps,SBD
1,Vitaliy Lukachinets,O,74.5,180,185,-187.5,185,,115,-120,-120,115,210,-225,-225,210,510,75,M,Віталій Лукачинець,1991,Yes,Wraps,SBD
1,Semen Dykukha,T2,80.7,-140,140,160,160,,110,-120,-120,110,170,180,,180,450,82.5,M,Семен Дыкуха,1998,Yes,Wraps,SBD
1,Andriy Pustovoy,J,79.4,130,-137.5,-137.5,130,,95,102.5,105,105,-135,135,-145,135,370,82.5,M,Андрій Пустовой,1991,Yes,Wraps,SBD
1,Kostyantin Chernov,O,81.7,205,215,230,230,,155,162.5,-170,162.5,220,240,-257.5,240,632.5,82.5,M,Костянтин Чернов,1984,Yes,Wraps,SBD
2,Yevgen Konovalov,O,80.6,140,145,155,155,,-135,-135,135,135,180,190,200,200,490,82.5,M,Євген Коновалов,1987,Yes,Wraps,SBD
3,Oleksandr Yatsenko,O,81.2,150,-155,-155,150,,90,95,100,100,-185,185,190,190,440,82.5,M,Олександр Яценко,1981,Yes,Wraps,SBD
1,Aleksandr Fedorov,T3,89,240,250,260,260,,165,180,-185,180,250,265,-275,265,705,90,M,Александр Федоров,1996,Yes,Wraps,SBD
1,Roman Shapovalov,J,87.5,190,200,205,205,,120,130,135,135,220,235,-250,235,575,90,M,Роман Шаповалов,1994,Yes,Wraps,SBD
2,Aleksandr Ostrovskiy,J,86,180,190,200,200,,120,130,140,140,180,200,220,220,560,90,M,Александр Островский,1993,Yes,Wraps,SBD
3,Taras Kravchenko,J,89,190,200,-210,200,,115,120,-125,120,205,-215,215,215,535,90,M,Тарас Кравченко,1994,Yes,Wraps,SBD
1,Oleksandr Statnik,O,88.6,210,220,-230,220,,150,160,170,170,225,240,-250,240,630,90,M,Олександр Статник,1988,Yes,Wraps,SBD
2,Pavlo Chygryn,O,90,-210,210,-220,210,,130,140,145,145,230,240,-245,240,595,90,M,Павло Чигрин,1989,Yes,Wraps,SBD
3,Andrey Mironenko,O,87.4,175,185,190,190,,-110,110,120,120,210,220,222.5,222.5,532.5,90,M,Андрей Мироненко,1980,Yes,Wraps,SBD
4,Igor Schur,O,86.8,150,-160,160,160,,-100,100,-105,100,180,190,195,195,455,90,M,Игорь Щур,1990,Yes,Wraps,SBD
5,Valeriy Antonyuk,O,88.2,140,150,160,160,,100,110,-115,110,155,-165,170,170,440,90,M,Валерий Антонюк,1988,Yes,Wraps,SBD
DQ,Maksim Omelchenko,T3,91.3,-160,-175,-180,,,,,,,,,,,,100,M,Максим Омельченко,1996,Yes,Wraps,SBD
1,Bogdan Komlev,J,97.8,-250,-260,260,260,-267.5,177.5,185,187.5,187.5,285,295,-302.5,295,742.5,100,M,Богдан Комлєв,1993,Yes,Wraps,SBD
DQ,Bogdan Dudkov,J,99.9,-170,-170,-170,,,,,,,,,,,,100,M,Богдан Дудков,1994,Yes,Wraps,SBD
1,Andriy Savchin,O,95,200,-215,215,215,,140,145,150,150,240,250,260,260,625,100,M,Андрій Савчин,1990,Yes,Wraps,SBD
2,Oleksiy Davydov,O,100,190,-200,210,210,,145,152.5,-157.5,152.5,240,257.5,-267.5,257.5,620,100,M,Олексій Давидов,1989,Yes,Wraps,SBD
3,Volodymyr Ogloblin,O,100,-220,220,-227.5,220,,127.5,132.5,-135,132.5,250,256,-260,256,608.5,100,M,Володимир Оглоблін,1965,Yes,Wraps,SBD
1,Volodymyr Ogloblin,M2,100,-220,220,-227.5,220,,127.5,132.5,-135,132.5,250,256,-260,256,608.5,100,M,Володимир Оглоблін,1965,Yes,Wraps,SBD
1,Dmitro Sagaydak,T2,103.5,170,185,190,190,,-110,120,-125,120,220,235,240,240,550,110,M,Дмитро Сагайдак,1997,Yes,Wraps,SBD
1,Vyacheslav Bondarenko,J,101,220,240,-250,240,,130,140,150,150,245,255,260,260,650,110,M,Вячеслав Бондаренко,1992,Yes,Wraps,SBD
1,Mikhail Lavrenko,O,105.3,220,230,235,235,,140,150,155,155,240,260,280,280,670,110,M,Михаил Лавренко,1980,Yes,Wraps,SBD
2,Fadi Bani-Naser,O,109.5,-180,190,-210,190,,160,-170,,160,240,-260,,240,590,110,M,Фади Бани-Насер,1988,Yes,Wraps,SBD
1,Vladislav Shevchenko,T3,114.9,180,190,200,200,,130,135,140,140,210,225,240,240,580,125,M,Владислав Шевченко,1997,Yes,Wraps,SBD
1,Vadim Tikhonov,O,113.9,-230,230,250,250,,180,190,200,200,250,260,270,270,720,125,M,Вадим Тихонов,1985,Yes,Wraps,SBD
1,Sergiy Zhabitenko,M4,113.8,-190,202.5,,202.5,,125,-135,135,135,202.5,210,217.5,217.5,555,125,M,Сергій Жабітенко,1959,Yes,Wraps,SBD
1,Sergey Shvachko,O,82.2,200,220,230,230,,130,-140,140,140,190,200,210,210,580,82.5,M,Сергей Швачко,1987,Yes,Multi-ply,SBD
1,Kyrylo Ostapishin,O,87.2,-315,315,325,325,,-205,205,,205,265,275,-280,275,805,90,M,Кирило Остапішин,1985,Yes,Multi-ply,SBD
1,Yaroslav Romanenko,J,91.7,-230,240,250,250,,155,165,-170,165,220,235,-245,235,650,100,M,Ярослав Романенко,1993,Yes,Multi-ply,SBD
1,Pavlo Ischenko,J,96.2,300,-310,-310,300,,200,210,220,220,260,275,-290,275,795,100,M,Павло Іщенко,1991,No,Multi-ply,SBD
2,Oleksiy Gerasymenko,J,93.3,275,282.5,295,295,,160,-167.5,-167.5,160,280,-295,-295,280,735,100,M,Олексій Герасименко,1994,No,Multi-ply,SBD
1,Pavlo Ischenko,O,96.2,300,-310,-310,300,,200,210,220,220,260,275,-290,275,795,100,M,Павло Іщенко,1991,No,Multi-ply,SBD
1,Stanislav Nikolaenko,O,113.3,-290,290,-320,290,,250,260,270,270,255,-265,-265,255,815,125,M,Станіслав Ніколаєнко,1978,No,Multi-ply,SBD
1,Olga Kotelnikova,T1,42,,,,,,20,-25,25,25,,,,,25,44,F,Ольга Котельникова,1999,Yes,Raw,B
1,Viktoriya Aslanova,O,43.7,,,,,,32.5,35,37.5,37.5,,,,,37.5,44,F,Виктория Асланова,1989,Yes,Raw,B
1,Anastasiya Furmanyuk,T3,55.5,,,,,,40,50,-55,50,,,,,50,56,F,Анастасия Фурманюк,1996,Yes,Raw,B
1,Darya Akimova,O,54.5,,,,,,-55,-55,62.5,62.5,,,,,62.5,56,F,Дарья Акимова,1988,Yes,Raw,B
2,Alla Fedorova,O,55.7,,,,,,-50,50,55,55,,,,,55,56,F,Алла Федорова,1989,Yes,Raw,B
1,Yevgeniya Karpovych,J,57.7,,,,,,60,65,-70,65,,,,,65,60,F,Євгенія Карпович,1995,Yes,Raw,B
1,Elena Gritsay,T1,63.2,,,,,,30,35,-40,35,,,,,35,67.5,F,Елена Грицай,2000,Yes,Raw,B
1,Irina Mazur,O,65.1,,,,,,40,45,-50,45,,,,,45,67.5,F,Ірина Мазур,1985,Yes,Raw,B
1,Anna Bolgova,O,73.7,,,,,,50,55,-60,55,,,,,55,75,F,Анна Болгова,1989,Yes,Raw,B
1,Elizaveta Esina,T1,82.5,,,,,,-65,70,75,75,,,,,75,82.5,F,Єлізавета Єсіна,1999,Yes,Raw,B
1,Marina Bilousova,O,75.5,,,,,,75,80,85,85,,,,,85,82.5,F,Марина Білоусова,1989,Yes,Raw,B
DQ,Bogdan Pustovgar,T2,52,,,,,,-75,-75,-75,,,,,,,52,M,Богдан Пустовгар,1997,Yes,Raw,B
1,Yegor Kurochkin,T1,55.1,,,,,,50,55,60,60,,,,,60,56,M,Єгор Курочкін,1999,Yes,Raw,B
1,Maxym Kukovytskyy,T1,58.2,,,,,,70,75,80,80,,,,,80,60,M,Максим Куковицький,2001,Yes,Raw,B
1,Andrey Redkin,T2,57,,,,,,-55,60,-65,60,,,,,60,60,M,Андрей Редькин,1998,Yes,Raw,B
1,Oleg Ponomarchuk,J,59.6,,,,,,110,115,,115,,,,,115,60,M,Олег Пономарчук,1994,Yes,Raw,B
1,Artem Perzhanitsa,T1,65.5,,,,,,80,85,90,90,,,,,90,67.5,M,Артем Пержаниця,1999,Yes,Raw,B
2,Sergiy Kharlamov,T1,64.4,,,,,,-70,75,-80,75,,,,,75,67.5,M,Сергій Харламов,1999,Yes,Raw,B
1,Yaroslav Pushkar,T2,65.3,,,,,,127.5,132.5,-137.5,132.5,,,,,132.5,67.5,M,Ярослав Пушкарь,1997,Yes,Raw,B
1,Vladislav Vasilenko,J,66.2,,,,,,110,115,-120,115,,,,,115,67.5,M,Владислав Василенко,1994,Yes,Raw,B
1,Arthur Sozinov,T2,74.9,,,,,,95,102.5,-105,102.5,,,,,102.5,75,M,Артур Созінов,1998,Yes,Raw,B
1,Vladislav Geletey,T3,73.8,,,,,,137.5,142.5,145,145,,,,,145,75,M,Владислав Гелетей,1995,Yes,Raw,B
2,Vladislav Chervenko,T3,74.7,,,,,,130,-137.5,137.5,137.5,,,,,137.5,75,M,Владислав Червенко,1996,Yes,Raw,B
3,Mykyta Tulupov,T3,72.1,,,,,,80,90,92.5,92.5,,,,,92.5,75,M,Микита Тулупов,1996,Yes,Raw,B
DQ,Dmytro Kuzmin,T3,74.2,,,,,,-150,-150,-150,,,,,,,75,M,Дмитро Кузьмін,1996,Yes,Raw,B
1,Zair Emirov,J,74,,,,,,120,125,130,130,,,,,130,75,M,Заир Эмиров,1992,Yes,Raw,B
2,Andrey Nos,J,72.6,,,,,,120,-125,-125,120,,,,,120,75,M,Андрей Нос,1993,Yes,Raw,B
1,Yuriy Rekov,O,74.8,,,,,,130,137.5,140,140,,,,,140,75,M,Юрий Реков,1980,Yes,Raw,B
2,Anton Rezvin,O,74.3,,,,,,115,125,127.5,127.5,,,,,127.5,75,M,Антон Резвин,1990,Yes,Raw,B
3,Artem Pridatko,O,74.5,,,,,,115,-125,-125,115,,,,,115,75,M,Артем Придатко,1989,Yes,Raw,B
1,Oleksandr Sydorenko,T2,77,,,,,,155,162.5,-172.5,162.5,,,,,162.5,82.5,M,Олександр Сидоренко,1997,Yes,Raw,B
1,Vladislav Dronyak,T3,80.3,,,,,,90,100,105,105,,,,,105,82.5,M,Владислав Дроняк,1997,Yes,Raw,B
1,Konstantin Ivashin,J,82,,,,,,160,165,-172.5,165,,,,,165,82.5,M,Константин Ивашин,1993,Yes,Raw,B
2,Aleksandr Bychkov,J,79,,,,,,140,145,150,150,,,,,150,82.5,M,Александр Бычков,1992,Yes,Raw,B
3,Oleksiy Parnak,J,79.7,,,,,,130,135,-140,135,,,,,135,82.5,M,Олексій Парнак,1993,Yes,Raw,B
4,Stanislav Rybak,J,81.6,,,,,,110,115,-120,115,,,,,115,82.5,M,Станислав Рыбак,1994,Yes,Raw,B
1,Mikhail Pshenichnyy,O,81.5,,,,,,150,160,165,165,,,,,165,82.5,M,Михаил Пшеничный,1989,Yes,Raw,B
2,Vadim Marinich,O,80.55,,,,,,150,160,-165,160,,,,,160,82.5,M,Вадим Маринич,1981,Yes,Raw,B
3,Igor Obora,O,80.5,,,,,,-145,145,-152.5,145,,,,,145,82.5,M,Игорь Обора,1990,Yes,Raw,B
4,Aleksandr Serdyuk,O,82.5,,,,,,-120,127.5,135,135,,,,,135,82.5,M,Александр Сердюк,1990,Yes,Raw,B
1,Mykola Popov,M5,81,,,,,,95,-100,-100,95,,,,,95,82.5,M,Микола Попов,1954,Yes,Raw,B
1,Bogdan Redchenko,J,87.7,,,,,,137.5,147.5,152.5,152.5,,,,,152.5,90,M,Богдан Редченко,1992,Yes,Raw,B
2,Oleksandr Domrachov,J,88.6,,,,,,150,-160,-160,150,,,,,150,90,M,Олександр Домрачов,1993,Yes,Raw,B
3,Sergiy Dubovchuk,J,88,,,,,,135,-140,-140,135,,,,,135,90,M,Сергій Дубовчук,1994,Yes,Raw,B
1,Vladimir Pikhota,O,88.4,,,,,,190,-200,-200,190,,,,,190,90,M,Владимир Пихота,1984,Yes,Raw,B
2,Oleksandr Oleynik,O,90,,,,,,170,182.5,-187.5,182.5,,,,,182.5,90,M,Олександр Олейник,1986,Yes,Raw,B
3,Denis Khora,O,87,,,,,,165,-170,-170,165,,,,,165,90,M,Денис Хора,1979,Yes,Raw,B
4,Dmitriy Oleynik,O,87.4,,,,,,-130,145,-150,145,,,,,145,90,M,Дмитрий Олейник,1984,Yes,Raw,B
DQ,Dmitriy Litvinov,O,85.5,,,,,,-155,-160,-160,,,,,,,90,M,Дмитрий Литвинов,1989,Yes,Raw,B
1,Yevgen Chernenko,M1,85.9,,,,,,165,172.5,-177.5,172.5,,,,,172.5,90,M,Євген Черненко,1974,Yes,Raw,B
2,Stanislav Afanasev,M1,88.2,,,,,,-70,80,90,90,,,,,90,90,M,Станіслав Афанасьєв,1972,Yes,Raw,B
1,Oleksandr Kutsenko,T2,100,,,,,,150,165,167.5,167.5,,,,,167.5,100,M,Олександр Куценко,1997,Yes,Raw,B
1,Bogdan Dmitrenko,T3,97.6,,,,,,130,145,152.5,152.5,,,,,152.5,100,M,Богдан Дмитренко,1996,Yes,Raw,B
1,Aleksandr Melnichuk,J,99.5,,,,,,160,167.5,175,175,,,,,175,100,M,Александр Мельничук,1993,Yes,Raw,B
2,Artem Ignatyev,J,92,,,,,,135,145,147.5,147.5,,,,,147.5,100,M,Артем Игнатьев,1994,Yes,Raw,B
DQ,Evgeniy Rudenko,J,94,,,,,,-130,-130,-130,,,,,,,100,M,Евгений Руденко,1991,Yes,Raw,B
1,Volodymyr Pechnikov,O,98,,,,,,-170,170,-175,170,,,,,170,100,M,Володимир Печніков,1985,Yes,Raw,B
2,Pavlo Dvertsevoy,O,90.9,,,,,,150,160,165,165,,,,,165,100,M,Павло Дверцевой,1986,Yes,Raw,B
3,V'Yacheslav Telyura,O,99.9,,,,,,160,-167.5,-167.5,160,,,,,160,100,M,В'ячеслав Телюра,1967,Yes,Raw,B
4,Aleksandr Sukhomlin,O,97.6,,,,,,140,152.5,-162.5,152.5,,,,,152.5,100,M,Александр Сухомлин,1989,Yes,Raw,B
5,Ivan Timokhin,O,92.1,,,,,,-100,110,112.5,112.5,,,,,112.5,100,M,Іван Тимохін,1980,Yes,Raw,B
1,V'Yacheslav Telyura,M2,99.9,,,,,,160,-167.5,-167.5,160,,,,,160,100,M,В'ячеслав Телюра,1967,Yes,Raw,B
1,Maksim Ischenko,J,109,,,,,,-170,-175,175,175,,,,,175,110,M,Максим Ищенко,1993,Yes,Raw,B
1,Gennadiy Larin,O,105,,,,,,155,170,-175,170,,,,,170,110,M,Геннадій Ларін,1973,Yes,Raw,B
2,Sergiy Shumskyy,O,109.3,,,,,,135,140,-152.5,140,,,,,140,110,M,Сергій Шумський,1985,Yes,Raw,B
1,Gennadiy Larin,M1,105,,,,,,155,170,-175,170,,,,,170,110,M,Геннадій Ларін,1973,Yes,Raw,B
1,Anton Kucher,J,124,,,,,,190,200,210,210,,,,,210,125,M,Антон Кучер,1993,Yes,Raw,B
1,Anton Kucher,O,124,,,,,,190,200,210,210,,,,,210,125,M,Антон Кучер,1993,Yes,Raw,B
2,Sergiy Filonenko,O,121.8,,,,,,-190,190,-200,190,,,,,190,125,M,Сергій Філоненко,1965,Yes,Raw,B
3,Yevgen Oleksenko,O,118.7,,,,,,180,-197.5,-197.5,180,,,,,180,125,M,Євген Олексенко,1989,Yes,Raw,B
1,Oleksandr Stryga,M2,123.6,,,,,,207.5,-217.5,-217.5,207.5,,,,,207.5,125,M,Олександр Стрига,1967,Yes,Raw,B
2,Sergiy Filonenko,M2,121.8,,,,,,-190,190,-200,190,,,,,190,125,M,Сергій Філоненко,1965,Yes,Raw,B
3,Vladislav Marchenko,M2,125,,,,,,175,-182.5,,175,,,,,175,125,M,Владислав Марченко,1967,Yes,Raw,B
1,Ruslan Fursov,J,135.4,,,,,,210,-220,-220,210,,,,,210,140,M,Руслан Фурсов,1991,Yes,Raw,B
1,Dmytro Sharoyko,M1,139.5,,,,,,180,185,-190,185,,,,,185,140,M,Дмитро Шаройко,1972,Yes,Raw,B
1,Oksana Granenko,O,61.7,,,,,,40,50,-55,50,,,,,50,67.5,F,,1985,No,Raw,B
1,Maxym Novichenko,J,39.4,,,,,,100,107.5,-115,107.5,,,,,107.5,52,M,Максим Новиченко,1993,No,Raw,B
1,Ivan Nemkovich,T1,60,,,,,,60,65,70,70,,,,,70,60,M,Іван Нємкович,1999,No,Raw,B
1,Oleksandr Zhariy,O,59.6,,,,,,117.5,122.5,125,125,,,,,125,60,M,Олександр Жарий,1972,No,Raw,B
1,Oleksandr Zhariy,M1,59.6,,,,,,117.5,122.5,125,125,,,,,125,60,M,Олександр Жарий,1972,No,Raw,B
1,Mikhail Ozhog,O,65,,,,,,145,-150,-150,145,,,,,145,67.5,M,,1977,No,Raw,B
1,Orhan Maisarov,J,69.5,,,,,,-120,130,135,135,,,,,135,75,M,,1994,No,Raw,B
1,Artem Kots,O,81.5,,,,,,170,175,-180,175,,,,,175,82.5,M,Артем Коц,1987,No,Raw,B
2,Sergiy Pugachev,O,81.3,,,,,,155,-162.5,170,170,,,,,170,82.5,M,Сергій Пугачов,1984,No,Raw,B
1,Valentin Dzhumaylo,J,88,,,,,,210,225,-230,225,,,,,225,90,M,Валентин Джумайло,1993,No,Raw,B
1,Aleksandr Scherbakov,O,89.3,,,,,,212.5,227.5,-232.5,227.5,,,,,227.5,90,M,,1966,No,Raw,B
2,Valentin Dzhumaylo,O,88,,,,,,210,225,-230,225,,,,,225,90,M,Валентин Джумайло,1993,No,Raw,B
3,Dmitriy Lomeyko,O,88.8,,,,,,180,187.5,192.5,192.5,,,,,192.5,90,M,Дмитро Ломейко,1983,No,Raw,B
4,Vyacheslav Perekhrest,O,88.3,,,,,,170,-180,-185,170,,,,,170,90,M,Вячеслав Перехрест,1984,No,Raw,B
5,Dmitro Fatiy,O,90,,,,,,-165,-170,170,170,,,,,170,90,M,Дмитро Фатій,1986,No,Raw,B
1,Aleksandr Scherbakov,M2,89.3,,,,,,212.5,227.5,-232.5,227.5,,,,,227.5,90,M,,1966,No,Raw,B
1,Valērijs Petrovs,M6,88.7,,,,,,120,-125,,120,,,,,120,90,M,,1946,No,Raw,B
1,Dmytro Gak,O,97.8,,,,,,205,210,215,215,,,,,215,100,M,Дмитро Гак,1983,No,Raw,B
2,Vladimir Oleynik,O,98,,,,,,170,180,195,195,,,,,195,100,M,Владимир Олейник,1990,No,Raw,B
3,Anatoliy Bolotnyy,O,99.9,,,,,,170,185,-195,185,,,,,185,100,M,Анатолій Болотний,1977,No,Raw,B
1,Andriy Belov,O,106.8,,,,,,205,215,222.5,222.5,,,,,222.5,110,M,Андрій Бєлов,1972,No,Raw,B
2,Egor Polomoshnov,O,102.6,,,,,,190,200,205,205,,,,,205,110,M,Єгор Поломошнов,1980,No,Raw,B
3,Andriy Petrushko,O,108.5,,,,,,-135,135,142.5,142.5,,,,,142.5,110,M,Андрій Петрушко,1984,No,Raw,B
1,Andriy Belov,M1,106.8,,,,,,205,215,222.5,222.5,,,,,222.5,110,M,Андрій Бєлов,1972,No,Raw,B
1,Dmitro Sarkits,O,118.7,,,,,,165,175,-185,175,,,,,175,125,M,Дмитро Саркіц,1974,No,Raw,B
1,Dmitro Sarkits,M1,118.7,,,,,,165,175,-185,175,,,,,175,125,M,Дмитро Саркіц,1974,No,Raw,B
1,Oleksandr Kostyrya,M3,113.4,,,,,,160,170,175,175,,,,,175,125,M,Олександр Костиря,1963,No,Raw,B
1,Artem Nikitenko,J,127.9,,,,,,255,265,270.5,270.5,,,,,270.5,140,M,Артем Никитенко,1991,No,Raw,B
1,Artem Nikitenko,O,127.9,,,,,,255,265,270.5,270.5,,,,,270.5,140,M,Артем Никитенко,1991,No,Raw,B
2,Igor Kovalov,O,125.5,,,,,,150,160,-165,160,,,,,160,140,M,Ігор Ковальов,1984,No,Raw,B
1,Oleg Dolzhenko,M1,130.2,,,,,,190,200,205,205,,,,,205,140,M,Олег Долженко,1973,No,Raw,B
DQ,Andrey Shvachko,J,67.5,,,,,,-125,-125,-125,,,,,,,67.5,M,Андрей Швачко,1994,Yes,Multi-ply,B
1,Vladislav Geletey,T3,73.8,,,,,,160,170,-175,170,,,,,170,75,M,Владислав Гелетей,1995,Yes,Multi-ply,B
1,Kyrylo Sharoyko,T2,81.1,,,,,,150,155,-160,155,,,,,155,82.5,M,Кирило Шаройко,1998,Yes,Multi-ply,B
1,Kostyantin Chernov,O,81.7,,,,,,235,245,252.5,252.5,,,,,252.5,82.5,M,Костянтин Чернов,1984,Yes,Multi-ply,B
1,Volodimir Yaurov,O,89.5,,,,,,140,-150,-150,140,,,,,140,90,M,Володимир Яуров,1977,Yes,Multi-ply,B
1,Borys Kovbasyuk,M2,95.6,,,,,,200,-210,-210,200,,,,,200,100,M,Борис Ковбасюк,1966,Yes,Multi-ply,B
1,Vadym Filippov,M1,130,,,,,,140,-210,-210,140,,,,,140,140,M,Вадим Філіппов,1973,Yes,Multi-ply,B
DQ,Mikhail Ozhog,O,65,,,,,,-180,-190,-190,,,,,,,67.5,M,,1977,No,Multi-ply,B
1,Roman Pelykh,O,74.7,,,,,,237.5,-252.5,-252.5,237.5,,,,,237.5,75,M,Роман Пелих,1985,No,Multi-ply,B
1,Sergiy Naleykin,O,80.1,,,,,,250,270,-277.5,270,,,,,270,82.5,M,Сергій Налейкін,1981,No,Multi-ply,B
1,Vitaliy Sobkovskiy,J,84.7,,,,,,195,-205,-205,195,,,,,195,90,M,Віталій Собковський,1991,No,Multi-ply,B
2,Rostislav Lepekha,J,86.9,,,,,,160,170,-180,170,,,,,170,90,M,Ростислав Лепеха,1993,No,Multi-ply,B
1,Dmitriy Lomeyko,O,88.8,,,,,,250,265,-270,265,,,,,265,90,M,Дмитро Ломейко,1983,No,Multi-ply,B
1,Valērijs Petrovs,M6,88.7,,,,,,130,140,-145,140,,,,,140,90,M,,1946,No,Multi-ply,B
DQ,Sergey Didovyk,O,98.7,,,,,,-275,,,,,,,,,100,M,Сергій Дідовик,1978,No,Multi-ply,B
1,Sergiy Ivanov,O,107.5,,,,,,320,330,340,340,,,,,340,110,M,Сергій Іванов,1990,No,Multi-ply,B
2,Andriy Petrushko,O,108.5,,,,,,160,165,170,170,,,,,170,110,M,Андрій Петрушко,1984,No,Multi-ply,B
1,Andriy Lomnitskiy,O,117.3,,,,,,250,265,272.5,272.5,,,,,272.5,125,M,Андрій Ломницький,1980,No,Multi-ply,B
2,Stanislav Nikolaenko,O,113.3,,,,,,250,260,270,270,,,,,270,125,M,Станіслав Ніколаєнко,1978,No,Multi-ply,B
3,Andriy Prykhodko,O,111.6,,,,,,250,265,-272.5,265,,,,,265,125,M,Андрій Приходько,1981,No,Multi-ply,B
DQ,Oleksandr Blagovidov,M1,116,,,,,,-250,,,,,,,,,125,M,Олександр Благовидов,1971,No,Multi-ply,B
1,Anastasiya Kalashnikova,O,49.7,-97.5,-105,107.5,107.5,,-55,-55,60,60,110,117.5,-122.5,117.5,285,52,F,Анастасія Калашнікова,1985,No,Wraps,SBD
1,Oksana Prikhodko,J,55.1,115,120,125,125,,75,-85,-85,75,135,145,-150,145,345,56,F,Оксана Приходько,1991,No,Wraps,SBD
1,Svetlana Dergaputskaya,O,65.4,90,100,110,110,,75,80,85,85,125,130,-135,130,325,67.5,F,Светлана Дергапутская,1978,No,Wraps,SBD
1,Anatoliy Starostenko,T1,58,105,115,-120,115,,70,75,80,80,135,145,150,150,345,60,M,Анатолій Старостенко,1999,No,Wraps,SBD
1,Mykola Bilozerov,O,67.5,190,200,-207.5,200,,110,117.5,122.5,122.5,220,-237.5,-237.5,220,542.5,67.5,M,Николай Белозеров,1982,No,Wraps,SBD
1,Eldar Efimenko,J,82.5,-180,180,190,190,,130,135,-140,135,225,-235,-235,225,550,82.5,M,Ельдар Єфименко,1992,No,Wraps,SBD
1,Artemiy Papin,J,88,200,215,225,225,,150,155,-157.5,155,270,280,-285,280,660,90,M,Артемій Папін,1994,No,Wraps,SBD
2,Oleg Yanovych,J,90,185,190,-200,190,,130,137.5,-142.5,137.5,260,-270,270,270,597.5,90,M,Олег Янович,1992,No,Wraps,SBD
1,Oleksii Melnyk,O,88.9,250,270,280,280,287.5,170,185,-195,185,270,290,300,300,765,90,M,Олексій Мельник,1990,No,Wraps,SBD
2,Mikhaylo Zhelyazkov,O,88.2,260,270,275,275,,170,-175,-175,170,290,-300,,290,735,90,M,Михайло Желязков,1980,No,Wraps,SBD
3,Oleksandr Shapovalov,O,90,240,-260,-260,240,,170,180,-185,180,240,250,-260,250,670,90,M,Олександр Шаповалов,1990,No,Wraps,SBD
DQ,Yevgen Leushyn,O,89.5,230,-240,-240,230,,170,-175,,170,-300,-300,-300,,,90,M,Євген Леушин,1988,No,Wraps,SBD
1,Yevgen Yeremin,J,94.8,275,285,-290,285,,160,-165,-165,160,280,290,,290,735,100,M,Євген Єрьомін,1993,No,Wraps,SBD
1,Oleksiy Matyuschenko,O,99.1,250,-260,-265,250,,-170,170,-180,170,250,-260,-260,250,670,100,M,Олексій Матющенко,1986,No,Wraps,SBD
2,Ivan Zhurba,O,93.3,170,185,195,195,,125,132.5,137.5,137.5,200,220,-230,220,552.5,100,M,Иван Журба,1979,No,Wraps,SBD
1,Andriy Galkevich,M1,96.2,230,-242.5,255,255,,160,-170,175,175,230,242.5,-255,242.5,672.5,100,M,Андрій Галькевич,1971,No,Wraps,SBD
1,Oleksiy Tkachuk,T3,109,160,172.5,182.5,182.5,,100,110,-120,110,170,190,205,205,497.5,110,M,Олексій Ткачук,1996,No,Wraps,SBD
1,Andriy Bobylev,O,107.2,200,210,-220,210,,160,-170,170,170,220,230,-240,230,610,110,M,Андрій Бобилєв,1976,No,Wraps,SBD
DQ,V'yacheslav Yasynskiy,O,108.1,-230,,,,,,,,,,,,,,110,M,В'ячеслав Ясинський,1974,No,Wraps,SBD
DQ,V'yacheslav Yasynskiy,M1,108.1,-230,,,,,,,,,,,,,,110,M,В'ячеслав Ясинський,1974,No,Wraps,SBD
1,Vitaliy Alekseev,O,113,270,285,292.5,292.5,,190,200,207.5,207.5,320,340,350,350,850,125,M,Віталій Алексеєв,1988,No,Wraps,SBD
2,Vladislav Krivokonev,O,122.8,280,-290,-290,280,,190,205,-215,205,-340,340,-367.5,340,825,125,M,Владислав Кривоконєв,1988,No,Wraps,SBD
3,Sergiy Makarovych,O,114.8,-300,300,310,310,,185,195,-200,195,300,305,-310,305,810,125,M,Сергій Макарович,1991,No,Wraps,SBD
1,Dmytro Golovynskyy,O,133.6,270,-300,,270,,-270,270,,270,260,270,,270,810,140,M,Дмитро Головинський,1988,No,Wraps,SBD
1,Viktoriya Aslanova,O,43.7,,,,,,,,,,95,100,102.5,102.5,102.5,44,F,Виктория Асланова,1989,Yes,Raw,D
1,Irina Gurska,J,51.3,,,,,,,,,,105,-110,110,110,110,52,F,Ірина Гурська,1992,Yes,Raw,D
1,Katerina Ovcharenko,T3,53.3,,,,,,,,,,107.5,-115,-122.5,107.5,107.5,56,F,Катерина Овчаренко,1996,Yes,Raw,D
1,Anastasiya Usenko,J,55.3,,,,,,,,,,95,-110,-110,95,95,56,F,Анастасія Усенко,1993,Yes,Raw,D
1,Yuliya Dovgal,O,53.2,,,,,,,,,,65,72.5,77.5,77.5,77.5,56,F,Юлія Довгаль,1986,Yes,Raw,D
1,Yana Yonenko,T1,60,,,,,,,,,,-90,90,100,100,100,60,F,Яна Йоненко,1999,Yes,Raw,D
1,Svitlana Bukarchuk,O,58.2,,,,,,,,,,120,130,140,140,140,60,F,Світлана Букарчук,1978,Yes,Raw,D
2,Natalya Kravchenko,O,57.7,,,,,,,,,,95,110,120,120,120,60,F,Наталья Кравченко,1977,Yes,Raw,D
3,Anastasiya Muratova,O,58,,,,,,,,,,110,-125,,110,110,60,F,Анастасія Муратова,1989,Yes,Raw,D
1,Ekaterina Romanenko,O,65.6,,,,,,,,,,85,95,102.5,102.5,102.5,67.5,F,Екатерина Романенко,1983,Yes,Raw,D
1,Mariya Prysyazhna,O,70,,,,,,,,,,85,95,-100,95,95,75,F,Марія Присяжна,1988,Yes,Raw,D
1,Yana Grechko,O,76,,,,,,,,,,130,140,150,150,150,82.5,F,Яна Гречко,1984,Yes,Raw,D
2,Tatyana Dzhevinskaya,O,76.2,,,,,,,,,,70,80,-90,80,80,82.5,F,Татьяна Джевинская,1984,Yes,Raw,D
DQ,Stepan Geyvandov,J,55.3,,,,,,,,,,-157.5,-157.5,-157.5,,,56,M,Степан Гейвандов,1995,Yes,Raw,D
1,Yuriy Garkusha,T2,65.9,,,,,,,,,,180,185,190,190,190,67.5,M,Юрий Гаркуша,1998,Yes,Raw,D
1,Anatoliy Bochkovskyy,M5,66.8,,,,,,,,,,175,,,175,175,67.5,M,Анатолій Бочковський,1954,Yes,Raw,D
1,Evgeniy Tanunin,O,75,,,,,,,,,,162.5,172.5,177.5,177.5,177.5,75,M,Евгений Танунин,1990,Yes,Raw,D
1,Ruslan Voroshilo,J,79.4,,,,,,,,,,180,190,,190,190,82.5,M,Руслан Ворошило,1994,Yes,Raw,D
1,Oleksandr Yatsenko,O,81.2,,,,,,,,,,-185,185,190,190,190,82.5,M,Олександр Яценко,1981,Yes,Raw,D
1,Aleksandr Fedorov,T3,89,,,,,,,,,,250,265,-275,265,265,90,M,Александр Федоров,1996,Yes,Raw,D
1,Stanislav Poznyak,J,88.3,,,,,,,,,,205,215,222.5,222.5,222.5,90,M,Станіслав Позняк,1993,Yes,Raw,D
1,Pavlo Chygryn,O,90,,,,,,,,,,230,240,-245,240,240,90,M,Павло Чигрин,1989,Yes,Raw,D
2,Andrey Mironenko,O,87.4,,,,,,,,,,210,220,222.5,222.5,222.5,90,M,Андрей Мироненко,1980,Yes,Raw,D
1,Stanislav Afanasev,M1,88.2,,,,,,,,,,130,145,150,150,150,90,M,Станіслав Афанасьєв,1972,Yes,Raw,D
1,Bogdan Dmitrenko,T3,97.6,,,,,,,,,,210,230,232.5,232.5,232.5,100,M,Богдан Дмитренко,1996,Yes,Raw,D
1,Bogdan Komlev,J,97.8,,,,,,,,,,285,295,-302.5,295,295,100,M,Богдан Комлєв,1993,Yes,Raw,D
DQ,Vladislav Nedviga,J,96,,,,,,,,,,-220,-220,-220,,,100,M,Владислав Недвига,1992,Yes,Raw,D
1,Oleksiy Davydov,O,100,,,,,,,,,,240,257.5,-267.5,257.5,257.5,100,M,Олексій Давидов,1989,Yes,Raw,D
2,Volodymyr Ogloblin,O,100,,,,,,,,,,250,256,-260,256,256,100,M,Володимир Оглоблін,1965,Yes,Raw,D
3,Yaroslav Melnik,O,98.9,,,,,,,,,,210,-232.5,-232.5,210,210,100,M,Ярослав Мельник,1991,Yes,Raw,D
4,Ivan Timokhin,O,92.1,,,,,,,,,,160,-170,170,170,170,100,M,Іван Тимохін,1980,Yes,Raw,D
DQ,Andriy Savchin,O,95,,,,,,,,,,,,,,,100,M,Андрій Савчин,1990,Yes,Raw,D
1,Volodymyr Ogloblin,M2,100,,,,,,,,,,250,256,-260,256,256,100,M,Володимир Оглоблін,1965,Yes,Raw,D
1,Volodimir Yatsyuk,O,107.4,,,,,,,,,,210,220,230,230,230,110,M,Володимир Яцюк,1989,Yes,Raw,D
1,Konstantin Platonov,O,112.8,,,,,,,,,,250,270,285,285,285,125,M,Константин Платонов,1989,Yes,Raw,D
2,Vadim Tikhonov,O,113.9,,,,,,,,,,250,260,270,270,270,125,M,Вадим Тихонов,1985,Yes,Raw,D
1,Mykola Bilozerov,O,67.5,,,,,,,,,,220,-237.5,-237.5,220,220,67.5,M,Николай Белозеров,1982,No,Raw,D
1,Artemiy Papin,J,88,,,,,,,,,,270,280,-285,280,280,90,M,Артемій Папін,1994,No,Raw,D
1,Oleksii Melnyk,O,88.9,,,,,,,,,,270,290,300,300,300,90,M,Олексій Мельник,1990,No,Raw,D
3,Mikhaylo Zhelyazkov,O,88.2,,,,,,,,,,290,-300,,290,290,90,M,Михайло Желязков,1980,No,Raw,D
DQ,Yevgen Leushyn,O,89.5,,,,,,,,,,-300,-300,-300,,,90,M,Євген Леушин,1988,No,Raw,D
1,Yevgen Yeremin,J,94.8,,,,,,,,,,280,290,,290,290,100,M,Євген Єрьомін,1993,No,Raw,D
1,Bogdan Volynets,J,108.9,,,,,,,,,,310,330,-340,330,330,110,M,Богдан Волинець,1992,No,Raw,D
1,Vadim Chikavchi,O,102,,,,,,,,,,275,290,300,300,300,110,M,,1987,No,Raw,D
2,Konstantin Vradij,O,101.5,,,,,,,,,,220,235,-240,235,235,110,M,,1983,No,Raw,D
1,Vitaliy Alekseev,O,113,,,,,,,,,,320,340,350,350,350,125,M,Віталій Алексеєв,1988,No,Raw,D
2,Vladislav Krivokonev,O,122.8,,,,,,,,,,-340,340,-367.5,340,340,125,M,Владислав Кривоконєв,1988,No,Raw,D
3,Sergiy Makarovych,O,114.8,,,,,,,,,,300,305,-310,305,305,125,M,Сергій Макарович,1991,No,Raw,D
