Event,Sex,Name,State,BodyweightKg,WeightClassKg,Division,Best3SquatKg,Best3BenchKg,Best3DeadliftKg,TotalKg,Equipment,Place
SBD,F,Kacey Maines,QU,64.9,67.5,Open,110.0,52.5,130.0,292.5,Single-ply,1
SBD,M,Alexandre Pelletier,QU,110.0,110,Open,290.0,255.0,282.5,827.5,Single-ply,1
SBD,M,David Caron,QU,86.9,90,Junior,205.0,125.0,275.0,605.0,Single-ply,1
SBD,M,Mathew Court,QU,139.9,125+,Junior,300.0,250.0,275.0,825.0,Single-ply,1
