Division,WeightClassKg,Place,Name,Team,BodyweightKg,Best3SquatKg,Best3BenchKg,Best3DeadliftKg,TotalKg,Equipment,Event,Sex
Boys,52,1,Junior Chavez,Waxahachie,49.67,99.79,68.04,127.01,294.84,Single-ply,SBD,M
Boys,52,2,Nic Schnitzius,Dallas Jesuit,51.26,115.67,49.9,111.13,276.69,Single-ply,SBD,M
Boys,52,3,Jose Gonzalez #2,Hillsboro,49.44,92.99,47.63,113.4,254.01,Single-ply,SBD,M
Boys,52,4,Chris Charles,Ennis,48.76,86.18,58.97,102.06,247.21,Single-ply,SBD,M
Boys,52,5,Kace Cotten,Waxahachie,47.4,70.31,47.63,99.79,217.72,Single-ply,SBD,M
Boys,56,1,Eduardo Perez,Venus,53.98,156.49,81.65,165.56,403.7,Single-ply,SBD,M
Boys,56,2,Alex Schaefer,Venus,54.66,136.08,77.11,154.22,367.41,Single-ply,SBD,M
Boys,56,3,Ivan Shepherd,Cedar Hill,52.62,111.13,79.38,124.74,315.25,Single-ply,SBD,M
Boys,56,4,Tony De La Cruz,Waxahachie,54.88,108.86,65.77,136.08,310.71,Single-ply,SBD,M
Boys,56,5,Eric Sanders,Hurst Bell,54.88,115.67,61.23,120.2,297.1,Single-ply,SBD,M
Boys,56,6,Ernest Edwards,Cedar Hill,53.52,111.13,54.43,102.06,267.62,Single-ply,SBD,M
Boys,60,1,Rodrigo Hernandez,Hillsboro,59.65,140.61,86.18,170.1,396.89,Single-ply,SBD,M
Boys,60,2,Delaun Leflore,Cedar Hill,59.65,129.27,92.99,120.2,342.46,Single-ply,SBD,M
Boys,60,3,Jose Reyes,Ennis,58.29,108.86,86.18,140.61,335.66,Single-ply,SBD,M
Boys,60,4,Jesus Reyes,Ennis,56.7,113.4,83.91,136.08,333.39,Single-ply,SBD,M
Boys,60,5,Luke Theivagt,Dallas Jesuit,59.87,92.99,61.23,111.13,265.35,Single-ply,SBD,M
Boys,60,DQ,John Rangel,Ennis,57.61,,,,,Single-ply,SBD,M
Boys,67.5,1,Daniel Van Amerongen,Dallas Jesuit,66,161.03,97.52,201.85,460.4,Single-ply,SBD,M
Boys,67.5,2,Nick Henderson,Waxahachie,63.05,174.63,92.99,190.51,458.13,Single-ply,SBD,M
Boys,67.5,3,Israel Castillo,Venus,66.68,183.7,88.45,167.83,439.98,Single-ply,SBD,M
Boys,67.5,4,Omar Gainus,Cedar Hill,66.22,161.03,102.06,142.88,405.97,Single-ply,SBD,M
Boys,67.5,5,Osvaldo Atunez,Hillsboro,65.09,147.42,106.59,149.69,403.7,Single-ply,SBD,M
Boys,67.5,6,Jose Maldonado,Venus,66.68,149.69,77.11,145.15,371.95,Single-ply,SBD,M
Boys,67.5,7,Marcelo Vega,Hurst Bell,65.09,133.81,83.91,140.61,358.34,Single-ply,SBD,M
Boys,67.5,8,Ryan Sproull,Plano John Paul II,64.86,115.67,72.57,151.95,340.19,Single-ply,SBD,M
Boys,67.5,9,Nick Drkulec,Oakridge School,66.22,106.59,79.38,120.2,306.17,Single-ply,SBD,M
Boys,67.5,10,Adrian Perez,Plano John Paul II,65.09,90.72,70.31,142.88,303.91,Single-ply,SBD,M
Boys,67.5,11,Joseph Buskmiller,Dallas Jesuit,65.54,97.52,52.16,111.13,260.82,Single-ply,SBD,M
Boys,67.5,12,Chandler Pollet,Dallas Jesuit,64.41,97.52,54.43,102.06,254.01,Single-ply,SBD,M
Boys,67.5,13,Carter Benton,Plano John Paul II,66,83.91,47.63,102.06,233.6,Single-ply,SBD,M
Boys,67.5,14,Cameron Buck,Venus,62.82,113.4,,,113.4,Single-ply,S,M
Boys,67.5,15,Colton Sutton,Venus,65.54,113.4,,,113.4,Single-ply,S,M
Boys,75,1,Steven Mancillas,Dallas Jesuit,74.16,235.87,140.61,229.06,605.55,Single-ply,SBD,M
Boys,75,2,Cam Morris,Waxahachie,73.26,195.04,115.67,226.8,537.51,Single-ply,SBD,M
Boys,75,3,Emanuel Silva,Venus,72.8,217.72,111.13,197.31,526.17,Single-ply,SBD,M
Boys,75,4,Grant Delanoy,Dallas Jesuit,73.03,154.22,83.91,206.38,444.52,Single-ply,SBD,M
Boys,75,5,Courtney Ogilvie,Cedar Hill,73.71,170.1,88.45,174.63,433.18,Single-ply,SBD,M
Boys,75,6,William Courtney,Dallas Jesuit,70.76,149.69,88.45,183.7,421.84,Single-ply,SBD,M
Boys,75,7,Vuong To,Hurst Bell,69.17,163.29,74.84,170.1,408.23,Single-ply,SBD,M
Boys,75,8,Alan Habashy,Plano John Paul II,69.85,117.93,83.91,181.44,383.29,Single-ply,SBD,M
Boys,75,9,Kevin Tabet,Dallas Jesuit,69.17,142.88,81.65,154.22,378.75,Single-ply,SBD,M
Boys,75,10,Abel Ghebremariam,Plano John Paul II,73.71,102.06,83.91,124.74,310.71,Single-ply,SBD,M
Boys,75,11,Joey Martin,Oakridge School,73.94,106.59,56.7,104.33,267.62,Single-ply,SBD,M
Boys,75,12,Anthony Lu,Oakridge School,70.99,90.72,54.43,88.45,233.6,Single-ply,SBD,M
Boys,82.5,1,Jorden Craig,Hurst Bell,79.61,208.65,145.15,192.78,546.58,Single-ply,SBD,M
Boys,82.5,2,Caleb Scott,Cedar Hill,80.74,204.12,120.2,213.19,537.51,Single-ply,SBD,M
Boys,82.5,3,Banahene Glover,Oakridge School,80.29,192.78,138.35,204.12,535.24,Single-ply,SBD,M
Boys,82.5,4,Curtis Sanders,Cedar Hill,76.43,183.7,120.2,192.78,496.68,Single-ply,SBD,M
Boys,82.5,5,Spencer Brown,Hurst Bell,76.66,181.44,122.47,192.78,496.68,Single-ply,SBD,M
Boys,82.5,6,Eric Johnson,Waxahachie,76.43,158.76,111.13,199.58,469.47,Single-ply,SBD,M
Boys,82.5,7,Logan Pendley,Venus,80.97,165.56,92.99,165.56,424.11,Single-ply,SBD,M
Boys,82.5,8,Nick Gonzalez,Hillsboro,76.43,161.03,111.13,136.08,408.23,Single-ply,SBD,M
Boys,82.5,9,Nolan Underwood,Venus,78.02,147.42,86.18,151.95,385.55,Single-ply,SBD,M
Boys,82.5,10,Sean Sachnik,Plano John Paul II,78.02,115.67,86.18,111.13,312.98,Single-ply,SBD,M
Boys,82.5,11,James Burnett,Oakridge School,76.2,90.72,65.77,124.74,281.23,Single-ply,SBD,M
Boys,82.5,DQ,Anthony Sinacola,Plano John Paul II,77.79,,,,,Single-ply,SBD,M
Boys,90,1,Jordan Odulin,Dallas Jesuit,87.77,258.55,129.27,229.06,616.89,Single-ply,SBD,M
Boys,90,2,Evan Jackson,Dallas Jesuit,85.96,242.67,136.08,226.8,605.55,Single-ply,SBD,M
Boys,90,3,Jose Alcantar,Venus,86.64,217.72,113.4,213.19,544.31,Single-ply,SBD,M
Boys,90,4,Joel Kayoka,Hurst Bell,86.86,192.78,115.67,226.8,535.24,Single-ply,SBD,M
Boys,90,5,Matthew Freeman,Venus,87.09,213.19,124.74,195.04,532.97,Single-ply,SBD,M
Boys,90,6,Ignacio Carmona,Hillsboro,85.96,199.58,117.93,210.92,528.44,Single-ply,SBD,M
Boys,90,7,Matt Rolen,Waxahachie,85.73,195.04,124.74,206.38,526.17,Single-ply,SBD,M
Boys,90,8,Josh Vakapuna,Hurst Bell,84.82,183.7,117.93,204.12,505.76,Single-ply,SBD,M
Boys,90,9,Rolando Ramirez,Hillsboro,85.5,188.24,113.4,190.51,492.15,Single-ply,SBD,M
Boys,90,10,Kebreyun Page,Cedar Hill,86.18,190.51,108.86,165.56,464.93,Single-ply,SBD,M
Boys,90,11,Tony Sotero,Hillsboro,86.18,172.37,106.59,181.44,460.4,Single-ply,SBD,M
Boys,90,12,Undrae Knox,Cedar Hill,87.54,163.29,113.4,172.37,449.06,Single-ply,SBD,M
Boys,90,13,Spencer Copps,Plano John Paul II,88.22,83.91,52.16,108.86,244.94,Single-ply,SBD,M
Boys,100,1,Nick Stewart,Waxahachie,97.3,254.01,163.29,249.48,666.78,Single-ply,SBD,M
Boys,100,2,Guadalupe Silva,Venus,96.16,213.19,140.61,217.72,571.53,Single-ply,SBD,M
Boys,100,3,Tony Cortez,Hillsboro,98.66,190.51,124.74,192.78,508.02,Single-ply,SBD,M
Boys,100,4,Zane Rider,Ennis,93.67,192.78,104.33,199.58,496.68,Single-ply,SBD,M
Boys,100,5,Phillip Villalba,Dallas Jesuit,98.66,188.24,115.67,161.03,464.93,Single-ply,SBD,M
Boys,100,6,Damien Hunt,Hurst Bell,90.72,165.56,106.59,181.44,453.59,Single-ply,SBD,M
Boys,100,7,Lyn Gaines,Oakridge School,92.99,149.69,74.84,156.49,381.02,Single-ply,SBD,M
Boys,100,8,Hank Fogle,Plano John Paul II,92.08,129.27,86.18,,215.46,Single-ply,SB,M
Boys,100,DQ,Garrett Smith,Venus,92.99,,,,,Single-ply,SBD,M
Boys,110,1,Anthony Perez,Waxahachie,106.14,238.14,181.44,244.94,664.51,Single-ply,SBD,M
Boys,110,2,Ramiro Reyes,Hillsboro,103.65,226.8,124.74,213.19,564.72,Single-ply,SBD,M
Boys,110,3,Michael Dyson,Hurst Bell,104.78,181.44,108.86,204.12,494.42,Single-ply,SBD,M
Boys,110,4,Christoph Henle,Oakridge School,105.01,142.88,95.25,129.27,367.41,Single-ply,SBD,M
Boys,110,5,Rory Kelly,Oakridge School,102.74,90.72,56.7,113.4,260.82,Single-ply,SBD,M
Boys,125,1,Damian Cunningham,Dallas Jesuit,122.7,206.38,156.49,208.65,571.53,Single-ply,SBD,M
Boys,125,2,Joseph Torres,Hurst Bell,123.15,210.92,149.69,190.51,551.11,Single-ply,SBD,M
Boys,125,3,Montayawn Pryor,Cedar Hill,113.85,206.38,142.88,199.58,548.85,Single-ply,SBD,M
Boys,125,4,Dillon Jurcik,Ennis,120.88,197.31,108.86,204.12,510.29,Single-ply,SBD,M
Boys,125,5,Jahaziel Compeon,Hillsboro,115.89,142.88,72.57,122.47,337.93,Single-ply,SBD,M
Boys,125,6,Chris Adams,Ennis,118.39,197.31,,,197.31,Single-ply,S,M
Boys,125+,1,Devin Collins,Ennis,148.1,272.16,142.88,249.48,664.51,Single-ply,SBD,M
Boys,125+,2,Dalton Allen,Dallas Jesuit,134.49,256.28,142.88,231.33,630.49,Single-ply,SBD,M
Boys,125+,3,Lazerrick Bowie,Hurst Bell,139.25,263.08,140.61,206.38,610.08,Single-ply,SBD,M
Boys,125+,4,Chris Schumacher,Plano John Paul II,126.33,147.42,97.52,176.9,421.84,Single-ply,SBD,M
Boys,,DQ,Mack Premo,Plano John Paul II,,,,,,Single-ply,SBD,M
Boys,,DQ,DeAnthony Lane,Ennis,,,,,,Single-ply,SBD,M
Boys,,DQ,Manny Flores,Ennis,,,,,,Single-ply,SBD,M
Boys,,DQ,Faybien Morris,Ennis,,,,,,Single-ply,SBD,M
Boys,,DQ,Luis Gonzalez,Hillsboro,,,,,,Single-ply,SBD,M
Boys,,DQ,Kevin Walker,Dallas Jesuit,,,,,,Single-ply,SBD,M
Boys,,DQ,E'Darrion Williams,Cedar Hill,,,,,,Single-ply,SBD,M
Boys,,DQ,Harrison Camp,Dallas Jesuit,,,,,,Single-ply,SBD,M
Boys,,DQ,Connor Thomas,Dallas Jesuit,,,,,,Single-ply,SBD,M
Boys,,DQ,Thomas White,Oakridge School,,,,,,Single-ply,SBD,M
