Name,Team,Sex,Division,BodyweightKg,WeightClassKg,Age,Squat1Kg,Squat2Kg,Squat3Kg,Best3SquatKg,Bench1Kg,Bench2Kg,Bench3Kg,Best3BenchKg,Deadlift1Kg,Deadlift2Kg,Deadlift3Kg,Best3DeadliftKg,TotalKg,Place,Event,Equipment
Jeannette Urlich,NTH,F,Masters 3,68,72,60,100,107.5,112.5,112.5,50,55,57.5,57.5,120,130,-135,130,300,1,SBD,Single-ply
Verena Tilson-Scoble,CD,F,Masters 1,61.1,63,41,115,-122.5,122.5,122.5,70,75,-77.5,75,125,130,-135,130,327.5,1,SBD,Single-ply
Tasha Williams,CD,F,Masters 1,81.35,84,45,180,190,-200,190,-150,150,-155,150,180,195,205,205,545,1,SBD,Single-ply
Tony Urlich,NTH,M,Masters 2,92.3,93,58,170,-180,180,180,120,127.5,-132.5,127.5,190,200,-210,200,507.5,1,SBD,Single-ply
Rodney Snell,APA,M,Open,92.95,93,24,240,250,260,260,180,190,200,200,215,230,240,240,700,1,SBD,Single-ply
Geoff Holmes,CD,M,Masters 2,136.25,120+,57,250,260,272.5,272.5,150,157.5,-162.5,157.5,200,225,240,240,670,1,SBD,Single-ply
Darren Neves,APA,M,Open,102.35,105,37,265,285,300,300,-175,175,182.5,182.5,235,255,270,270,752.5,1,SBD,Single-ply
Kurt Docherty,CD,M,Open,116.8,120,27,270,290,-300,290,192.5,197.5,205,205,270,290,305,305,800,1,SBD,Single-ply
